23 84 157 61 3168 2297 4449 3450 9659 5353 8140 6578 129 7886 8810 5257 9047 1659 3604 2098 7814 729 6840 4662
21 88 568 4066 4536 1609 3608 7610 26 322 3844 344 3730 9041 2182 9891 8507 5536 4277 8185 5629 8789
16 187 2356 1353 8184 9763 6464 5822 4182 7089 3048 1242 5410 3287 9608 794 142
24 303 7862 1111 8445 7916 9263 2453 7081 8288 5302 7194 6974 6830 4218 288 9261 7541 8215 2050 7181 5560 2815 4339 3559
28 474 6160 9733 3249 739 699 9691 1002 1561 8063 9534 78 8931 4076 2378 4313 2514 2001 3423 3162 9427 2865 3310 1958 4296 759 295 9476
18 677 6695 4143 7141 7911 6485 4387 1192 4004 4814 5270 5277 8340 4010 6700 6177 2492 7527
14 719 3338 7762 2558 3086 7031 6310 885 1607 9898 623 4901 8372 7789
11 1066 8758 1908 172 9018 8421 6089 799 9219 369 5903
11 1178 5815 2675 6163 4528 2533 5084 2363 4672 9048 3749
16 1209 2695 1563 2209 4213 3258 193 7415 4224 4266 8428 2526 866 515 2486 3111
17 1315 6228 1815 3697 3005 7230 3329 7779 6793 5278 8004 5537 510 4982 5687 7571 8422
26 1335 29 610 4056 7140 8484 7891 9144 9252 1236 22 9091 4597 3521 9597 7400 8522 4837 5707 1216 4996 431 8690 1207 9517 626
16 1515 3471 2944 3430 1904 7337 5453 8785 374 294 3731 3432 1834 1132 1591 6527
23 1543 2576 585 7318 8965 5155 3959 232 512 4188 3813 5793 4572 9903 1484 4967 3128 8488 4741 5449 4348 8301 2508
21 1560 9626 8698 1447 7198 5721 933 6615 6216 8167 9019 6372 5328 6791 5936 571 7519 944 9747 2200 4047
25 1757 9283 9581 7849 666 6659 3146 9789 7998 5094 9884 3573 4992 999 3397 4082 8885 3695 4707 9606 204 2286 3945 6080 5857
10 1992 1269 9459 362 5555 9676 1514 6246 8463 5723
31 2135 1978 1724 1838 7889 7704 3160 9412 1564 9104 830 5503 9410 2857 8800 3798 3751 6363 5587 6030 6540 9933 4732 7942 110 1274 8479 1478 4728 9714 4292
30 2432 3555 2008 6607 1773 3104 4815 9757 3319 6398 169 7364 6066 6902 4677 4689 6921 6821 4582 7529 8593 2087 2991 8528 3320 3003 2069 8949 5348 1962
21 2519 5424 5341 3692 5881 3708 8815 9103 5016 3962 7265 2485 6675 3820 7970 6586 7053 4753 5280 9876 4683
24 2571 622 8086 1406 9246 3461 9469 5920 3906 4615 704 3326 9809 2525 3421 2397 9106 8491 2513 9998 9444 1956 6384 1923
26 2920 7913 3325 7816 5014 4163 7339 3476 9022 947 6743 8492 909 7351 8476 1974 525 3412 291 5774 8714 8802 148 1452 9499 7459
36 2949 4494 2429 7709 3294 109 7471 8323 1030 9012 6125 1201 7492 2776 8597 5622 3623 3829 6056 6104 9302 5385 1277 7505 4715 9755 2517 2699 2569 9413 1426 5894 5937 1001 20 5543
23 3156 4346 4495 4586 7435 3596 9452 5466 481 3717 6903 9135 8555 6805 8485 4775 4159 6515 5272 5923 176 455 8120
33 3253 1735 3667 6139 817 2714 3459 9274 442 5816 2470 9429 907 2386 97 6248 2040 2468 5317 581 2068 3912 8060 3777 6267 7240 574 9715 5015 1354 8683 8538 5665
15 3580 8420 554 6912 8493 9729 9667 1598 9790 3645 8872 1501 6863 1140 722
15 3629 1888 3239 7227 6154 1704 404 6976 452 7818 7617 4813 9484 2926 5586
25 3696 9392 2924 4270 7724 3314 3584 1470 1612 2319 3847 1781 9331 8258 1011 7841 8828 6837 3440 7526 2249 6828 2353 107 9146
9 3869 5598 3008 8458 8715 7638 9927 5653 9906
15 4008 1005 9979 6361 8787 7156 6199 2736 932 9200 8321 3671 3522 4695 1805
31 4078 8102 1407 3640 8449 5049 502 119 4782 8042 7840 1369 2602 3429 4937 6181 7205 7132 6326 9510 5484 7653 8680 8234 8975 3206 1542 7044 7863 4641 1359
15 4094 117 8406 4644 3468 1583 5847 6416 5635 67 9110 5919 1155 6371 2709
16 4309 7399 7877 2313 7455 1605 7180 1090 4184 5507 306 7261 2888 3041 3264 7937
35 4377 9799 3103 7799 7293 1784 1372 7210 5189 3396 2305 4376 7579 6967 3439 5764 9849 2439 9358 9542 9250 3234 9618 7976 8013 7155 5215 9253 8762 2908 9782 1653 4803 8131 3569
34 4435 8564 8557 6658 5112 2293 8574 8207 1580 2686 559 6589 2275 4623 9268 2052 3454 5314 7570 5233 7260 6707 8390 2545 787 8771 8315 3094 236 755 2550 770 3664 6111
24 4525 9675 8395 9291 7711 8020 5060 6068 6756 9830 5566 4973 1365 1250 8324 6374 7679 4773 6571 6452 1027 6521 5606 5697
17 4839 4307 6961 489 6780 8783 3358 3438 3878 7932 2367 5319 4178 6496 7450 1356 962
31 5018 7956 5381 5402 3918 2942 8435 1625 2657 8915 2338 6305 5830 8272 5910 4564 3007 2841 5305 1876 2452 6926 2851 5739 9958 4155 632 1099 5759 653 1284
20 5299 4842 9207 9187 19 9090 7846 530 5307 7882 3759 4588 3926 1616 1760 6986 6889 2806 1226 4186
25 5335 3855 297 4098 6794 8055 8426 8902 951 6356 4139 85 9381 425 2565 1541 4085 9800 5523 3221 4168 6975 4535 1165 2528
13 5440 9216 2418 6545 9587 6166 3268 246 8707 6664 2993 9878 5244
23 5868 3457 6418 1384 6849 6851 7355 7483 9706 2990 9456 2242 5339 9059 2890 9414 6355 2165 5623 1327 5720 1210 8480
13 5970 9550 2654 1168 2702 1790 777 6642 6463 7343 8080 3064 6870
18 6002 4855 920 2941 3321 5925 8531 9946 4176 3318 1661 5142 5467 8866 5978 6433 59 2813
7 6031 211 1721 4031 3946 6987 4796
23 6252 5913 4195 9652 8316 890 5329 8926 5268 4457 5117 3973 2995 2873 7439 3711 9760 6943 1374 1213 302 8654 7714
28 6403 208 9537 8118 8938 178 659 6932 7508 2179 8097 1071 6423 7781 3045 9237 7531 2413 738 1183 7838 4030 7050 6011 1173 5224 7996 2964
3 6412 4829 5441
22 6466 273 8962 6649 7088 4546 4437 2422 8832 6836 439 8766 4411 7291 5346 7589 197 9243 705 9668 3780 9721
29 6670 2912 5161 1227 658 9864 6762 9928 8058 6067 6674 4221 6726 592 684 4681 5966 4210 3587 5795 7022 6354 1172 6477 1599 2312 6271 6997 9472
19 6783 4894 268 3655 7512 3572 9316 3786 6327 164 823 5088 5405 6243 1067 5138 4553 1084 3928
4 7013 8605 1522 5296
9 7109 9925 1289 6511 5594 4361 4337 5682 5672
19 7463 3578 5679 2977 9785 5171 4789 2768 2004 9017 4738 7027 8756 2188 8934 4310 8265 1547 2163
40 7475 2559 5716 4687 4873 5387 2123 2711 6804 6450 4207 2235 4297 9457 8353 2640 3261 1455 7984 5567 5709 7542 1461 8646 1337 7507 8811 7340 1026 7160 5196 3876 8041 4081 44 9615 5515 3703 2940 398
22 7928 3281 9020 7188 5615 4706 842 3029 368 3767 4460 3980 1164 2772 9096 1678 1036 6499 5825 5592 6750 8377
30 7965 3371 8559 2774 8932 8425 8459 7224 825 3585 483 1627 6480 2173 8645 1117 5105 384 2204 5984 9350 7706 3670 7771 3529 652 8386 9390 5964 3688
26 8175 9393 734 1879 3579 1013 1635 4935 6296 4867 8434 8146 6563 7092 2696 9684 1109 8585 2972 1639 3031 9479 1283 7101 4655 3088
33 8292 4214 6656 190 5743 8629 4635 9944 2605 3795 3114 9171 3802 2706 4971 2989 1584 7266 2829 3127 3924 3282 370 4988 7510 539 4684 2619 5492 323 9371 9787 2502
29 8310 222 445 2507 1492 8739 4910 3188 5955 7787 761 3636 4607 8761 4858 7903 8239 5486 3145 1035 5490 8732 5898 6049 6417 9773 4540 6016 9831
17 8640 5649 8412 1415 7829 1364 8746 8743 4340 2631 3351 8129 591 2416 7853 8567 7760
17 8773 6910 4121 5640 6105 4632 5728 6174 2150 5570 8677 1404 6535 6291 7112 3543 8122
23 9313 7561 6900 7186 9402 4648 6951 2783 4869 9681 4786 1143 1322 3935 1321 2469 9063 6653 2080 4731 9771 3417 685
35 9707 957 6767 8630 3236 2641 3196 5487 2975 1010 4246 417 3398 7682 5279 3622 7812 352 7727 319 8064 3323 4919 3674 8822 6636 3158 158 7736 4183 8685 1813 1961 9753 7825
27 9913 2031 3112 5433 3784 6013 9424 1710 163 1123 9968 3316 6713 3714 594 8992 8317 6525 8907 5823 5251 2953 3063 4542 9336 7751 5408
16 2465 7952 6694 9405 7325 451 3151 5331 8712 1506 5037 4522 49 5811 1823 4091
31 9976 4948 1251 1959 5156 6584 8876 2394 9964 9496 5076 9980 365 7900 5176 5532 4985 1711 2237 6812 7233 6852 8611 9069 4994 1698 2170 3987 758 6458 5944
13 4379 1993 8213 6502 7948 9124 79 7087 7977 9937 6944 9993 5398
35 3607 8950 8587 6404 7129 1734 4194 2566 2216 152 9497 3451 6237 9612 4046 2234 3761 6866 7178 3293 7819 5565 6846 5558 4621 3920 1196 8280 5840 7332 3733 5839 9567 3836 1573
22 5497 961 3693 7028 6110 9851 7927 3073 4558 1601 8155 8642 300 3839 3646 1476 8401 3673 5256 959 8253 7713
27 9847 8342 7810 1860 6155 8784 5626 6446 3663 2482 2434 5838 9505 249 586 7918 5005 7062 3968 184 4619 6906 220 6988 7218 438 7356
24 8878 7737 5511 8768 5751 853 9062 6962 8373 412 7935 1395 4770 4978 8010 4468 4191 1270 1691 5961 6300 7154 2839 9573
22 9752 6541 4475 2079 945 3424 277 7637 9696 8133 2825 2171 2122 6391 5039 5073 4543 5780 4197 8138 3712 7731
24 2735 4090 5406 2327 1228 3208 4352 6630 1004 8103 862 5301 2882 4942 6940 6162 6823 4152 8778 7545 5916 2481 3265 6917
17 9084 9121 5475 4694 9594 1906 4513 2701 8223 6690 2723 6998 1708 7660 6358 5248 6470
31 7429 2020 4788 3527 9128 166 2915 7372 975 5663 5054 2981 4244 5878 2229 6605 9758 9142 1154 8439 6829 5258 441 2895 1049 9308 5781 9840 6782 2238 9736
21 7657 8840 1332 3540 9595 6206 1218 2537 9071 9199 9186 9518 4466 7767 2692 7540 5806 2259 2100 2659 8850
23 3442 8728 3410 5227 7398 6493 2106 2143 2511 3403 7236 5712 3615 3038 1324 9647 1937 6850 5211 235 6042 2633 1555
19 5693 6633 9935 7116 3384 2642 989 5477 7382 5187 6537 1509 3524 6344 2315 2901 8814 8903 1339
36 672 2869 8675 9698 2603 6150 2198 9575 2333 986 6871 1152 6784 3793 4552 5792 3466 7857 7389 6806 7689 8105 4264 800 6522 4464 6318 1611 4333 5772 5703 1795 937 5024 13 7235
32 6822 3030 2324 5808 4414 6924 3024 9282 8588 6474 3502 2732 6407 9156 2220 9950 2023 280 6722 4669 2614 151 9716 7125 3538 6483 8584 2283 3312 9921 5077 2172
33 549 1866 1194 8803 7193 529 7019 9655 7275 2264 9143 3610 1420 8755 6436 1714 4316 7454 4144 7032 6079 3385 5505 8012 4462 8696 2962 7074 1149 1614 1120 4203 1699
31 9619 6724 6843 3276 7320 7357 6164 8040 4703 98 9179 7732 9481 3867 1259 5481 9778 9734 1736 5350 7047 2871 2199 6568 1347 4275 5407 7964 2606 6434 8044
5 1305 311 3539 7742 5125
14 9563 3647 2325 7914 4280 5850 7852 8117 2811 143 265 3819 7673 3723
30 6263 3149 8520 1170 8158 8073 3833 4493 4344 382 7924 6451 4358 4443 256 5309 5778 53 3437 9688 7675 5363 5820 1987 9887 6445 9749 4451 2243 6185
23 5192 7119 9166 3651 9544 5006 248 2717 2330 1348 2057 3722 7363 7403 6995 8525 9857 5832 5542 9726 6394 9601 6514
11 3055 1528 5902 2828 5727 4781 2838 3202 5669 316 8808
21 1097 9523 3025 6269 2424 9347 8376 8774 9559 4225 3193 9541 1342 6600 3864 3015 2219 8888 1019 980 6919
25 4601 1105 1949 4171 6346 8860 2072 9912 408 8345 4747 495 964 3707 4631 3000 4900 1174 9332 1076 8999 900 690 3984 144
11 9003 1664 9901 3049 3826 9974 2335 4421 3105 2573 3848
11 2247 7468 7854 2067 4116 8880 9007 9555 3520 8429 5265
21 2015 7097 881 7988 8038 6898 624 2546 9894 5851 7280 5549 1878 9936 6546 1662 8398 2252 9129 8865 3586
17 4742 372 7640 219 3333 9463 5480 3246 3407 9391 4474 5685 3369 6789 9123 6453 3185
12 700 5304 2176 6509 7168 1385 36 9439 6991 7391 811 3969
34 423 8518 583 7229 2589 6740 5425 956 35 7208 3194 3181 7769 4147 3498 5473 2874 8904 8764 689 9150 5767 4890 1145 9863 1824 3525 609 6295 7358 2637 1663 5647 9829
32 1273 8204 8029 3138 457 2382 2060 3435 9364 1700 9031 7422 6301 4916 6406 2740 3241 5216 8270 6014 5195 4053 9522 6661 4598 4926 526 4434 2301 5148 432 9532
25 8731 741 5222 1512 7451 1697 6409 5303 2999 2585 4326 8243 5899 8014 6379 3271 8017 1741 8344 4647 4565 8526 6972 6343 8330
29 6689 7957 3564 8271 5218 4693 7104 2523 3557 2663 8379 2527 8869 2035 5001 4062 5372 8186 7627 5786 4289 7743 1229 6429 5980 3431 4783 2824 4321
15 8890 9848 600 1763 597 1238 9794 4859 4269 2554 3080 4393 7138 4018 8098
24 9514 3988 8578 1325 40 6865 8244 7796 8400 2268 3201 7094 8969 4322 2336 4771 2801 1858 7559 4760 9067 5563 7133 6439
19 2720 1135 5284 733 8199 4517 9653 4917 8639 3217 3153 1540 5924 8626 3978 7184 8168 9025 3347
8 7861 6321 9366 4442 9049 8891 3741 1343
14 3090 3654 1320 8437 4382 3551 4419 6195 3581 2488 7307 3734 762 9097
24 713 2986 4882 6044 1637 4583 9920 7631 4826 8791 6985 9923 6213 7941 459 5031 5933 3570 8547 4357 8571 8468 3571 7393
29 6277 6706 3743 6913 5572 8370 2904 4064 9769 1723 5539 5263 292 5043 7745 4696 514 5702 5995 3859 5062 5804 9583 2340 214 6704 5680 4465 2445
16 5934 6039 6868 6622 7130 201 3448 7012 4946 5 5912 4284 9642 5434 3858 9131
27 6901 6965 8290 2147 7226 3807 6814 896 8116 4300 1523 8164 118 8987 9379 9607 8289 1720 6785 8673 4578 28 6490 4740 1916 2894 5067
22 6815 580 1794 2233 3758 1363 7572 8637 8219 4137 5371 3330 1370 5401 4678 9115 7473 1694 8238 6534 7524 5631
17 7070 541 8179 9820 8262 2357 7346 6319 518 2644 2344 333 8015 6395 5696 3943 2951
28 4679 225 7096 9265 3531 3228 9623 3811 6211 3070 4248 4533 2859 4997 3763 7582 1901 7377 6124 6230 5884 4447 5867 6007 5591 1403 9061 7881
30 5445 6456 5027 6654 3575 9996 9666 4109 6202 5347 2787 6648 9564 2011 2108 9516 1051 6883 1424 1394 4092 6129 2155 1258 7059 3923 8636 4273 6650 2658
26 2883 6952 9670 3409 1874 2184 7872 6963 3443 6240 7879 3473 6552 7520 227 1358 6145 270 4943 960 8908 562 3626 4383 669 4432
22 3817 4618 6424 8489 2536 6752 3334 8868 2250 1910 9202 4605 1738 6672 508 7691 2630 9240 8553 6482 5443 6559
26 9305 5245 5393 1489 9267 7086 9680 1729 1835 871 2810 636 355 4566 2 3039 8545 6861 887 4950 9708 7752 3526 7317 1133 4325
22 4059 24 9411 2531 8149 9406 7553 7768 5120 7172 9164 7628 5584 921 5844 6426 8843 3561 6591 4363 2998 1003
19 1138 2278 7064 8302 315 3092 7602 6186 8079 6034 9576 4371 4045 4347 1785 7835 8913 9717 5147
16 5324 5717 7716 5098 9170 7652 7480 3804 2369 7625 8053 3745 8411 4962 8941 3386
22 1867 8509 7687 1803 4353 1096 202 8136 4219 714 1832 8359 9318 3374 1214 7105 8145 1126 1085 1935 9977 2276
12 4758 113 3546 7287 4428 8566 8462 5541 6058 2982 2660 2516
17 6381 5343 3148 6558 6377 1444 80 9663 6419 9217 9339 3886 2064 6273 4649 7824 3562
21 2917 8189 726 7792 493 57 32 9610 8671 2665 1864 6197 1922 5762 4418 9719 3415 1419 7489 443 1472
26 769 1833 394 567 6329 1024 513 2539 4088 4957 1884 7448 7643 9028 5219 4211 9592 133 5664 5529 7734 3152 2676 9528 8442 5979
26 519 2316 5971 6123 9985 8464 2651 6026 348 5557 3305 1891 8819 8031 7616 7195 1671 359 5905 1975 1574 6278 4812 9184 8959 3618
14 4071 6662 5358 5744 4170 3989 4080 4666 6526 1352 156 3735 7425 2053
13 606 6916 2296 1438 9473 5818 5856 7406 128 435 5779 5087 4887
34 8708 4637 6529 1630 1984 2426 4661 1221 5212 3058 3220 161 4958 7808 2290 524 2622 4014 912 3776 7615 9727 1976 7966 8006 4524 7213 5987 651 7204 2450 763 2280 2618
16 3549 1883 7993 2512 7804 3503 1990 2617 5115 6599 5461 2318 2361 9210 6294 9374
32 7499 4058 4877 6457 5746 3601 5214 4875 8614 9341 9645 4441 7562 1589 2393 3710 6769 1590 4198 2611 5852 2500 7973 496 848 5397 9873 8405 2929 3254 1868 0
14 1776 3245 7329 5890 2690 1252 8071 2625 9622 1841 8503 3781 7002 5848
8 3307 8227 9076 6792 5162 3422 1093 9990
31 8477 9046 4208 2928 5954 1500 9819 552 7041 403 120 1660 5879 4634 5534 6683 2498 7394 1772 1058 1749 3074 3927 4239 8255 8818 6065 7310 9589 5718 5758
35 6663 55 6189 5948 5990 3067 9320 2455 47 5627 9949 2578 4792 175 6367 1504 5708 7594 6619 5583 274 1468 1854 2494 198 1092 192 7225 5800 1225 6844 5202 8939 3994 6507
11 5235 1414 9852 4455 6410 6475 895 8306 4392 2103 807
24 5300 696 4885 9087 965 9286 3554 849 657 5553 8776 8196 604 8558 3934 630 9922 4861 8090 4424 6748 9396 9334 557
29 9409 9449 9613 8298 2954 8486 4117 402 9000 5210 9407 5122 3141 2960 1519 3484 4925 8162 1268 5177 1928 4676 9646 6193 2307 4354 1473 170 7049
18 3167 477 9052 2784 3865 1054 5732 2600 1046 2291 6593 4965 3225 101 269 966 6096 8278
20 563 2979 2884 4699 7837 7103 7794 1831 7624 8916 1308 7007 5810 5575 875 7584 503 8678 810 5573
30 9679 4150 7864 5237 6304 4630 3200 4250 7685 9419 66 9889 9561 7187 9082 4824 680 3027 547 8360 2256 1446 1056 7765 5056 2194 7283 8724 4759 6242
32 768 6884 6669 6220 3583 6182 617 9242 3098 106 8644 7764 1417 8182 4675 4893 4009 283 4067 6798 1740 7974 9488 1361 6626 5828 7359 7946 9971 9454 8884 5504
20 5860 3147 5008 8895 2332 8539 9043 1217 4993 5357 619 2522 6126 2816 3713 6144 5438 4022 9648 9765
15 8670 3536 8141 3283 8887 6797 334 2820 1936 4375 7202 6051 757 1254 8847
24 9888 4984 5113 1973 5959 6437 9987 2808 4692 6444 8656 8513 2834 1485 4765 45 4216 2391 2002 8180 5935 3576 8508 1931
27 6807 6745 3949 252 7515 3895 9073 8339 1871 7750 11 8906 3508 2965 4187 5149 6328 1063 2317 7244 9206 5831 1619 5485 8710 4350 8171
23 2061 2166 2963 661 7379 1422 2107 1799 6905 215 4394 490 692 889 5102 3828 50 420 4501 3034 3183 3344 923
21 5086 7114 627 1100 5089 5554 326 950 4205 8973 560 4756 4819 6610 8202 6334 6934 6489 9600 4779 3857
15 7929 7612 8209 9768 6741 4848 3739 2119 8303 8364 1312 7349 5198 1951 7111
15 7401 7108 2110 1338 7843 7754 4515 9994 3339 5104 863 9547 1505 1885 8596
9 2384 1411 4810 8704 2579 6768 7484 4811 8057
20 6831 2738 5875 5332 7926 9114 4125 776 6629 8166 5512 7461 9086 253 5754 1919 3890 1680 9792 2032
18 9325 9649 271 1121 482 9549 7698 3051 4880 7134 6331 6727 1271 7414 9300 7142 7972 1652
9 3444 789 9011 2934 6575 9617 553 4653 4027
19 5769 1323 400 3510 3199 1634 7284 7071 6219 2010 2459 5286 8633 5897 7530 1147 472 86 566
18 9140 3197 2748 2742 4154 3915 9872 9761 1023 1533 5633 8349 8483 9465 7603 4364 7586 9430
19 8703 8024 2520 4164 9890 9562 4141 1381 6286 5789 9531 2028 5378 4600 3633 7228 4951 9227 4891
21 7040 3257 3976 9965 4299 2112 7692 1565 1725 1595 6268 8659 7383 8946 8734 5612 7478 911 401 9387 5293
23 8329 8711 8953 8533 9611 4787 8193 4263 3163 5420 3455 3379 1017 941 9605 743 3171 2347 411 6895 5731 5150 3679
33 6198 6135 4223 4084 8991 8128 8173 2368 1521 2948 8312 8159 2281 3757 6857 1747 4290 1668 6612 5183 701 4097 1167 9825 9855 2588 7979 4215 8964 8454 8797 5659 707
10 375 5991 9021 1548 2487 3179 1825 8260 1456 8022
30 1040 1113 8277 697 9030 977 6886 6896 1511 546 821 1309 1048 9482 7381 793 6880 2844 276 2950 5877 3881 8604 6037 1205 9745 3248 7051 579 4374
16 6115 8736 4959 9306 3368 601 8796 2140 8615 4070 2678 1713 8825 6685 2329 9281
13 5885 5213 1593 3891 8573 7580 9251 17 5733 5068 1171 5338 6090
19 7020 8713 4233 3354 3921 8681 4659 6336 6698 2045 7629 599 7122 6330 7954 4896 8043 5404 5179
18 3311 499 5250 2931 4487 5061 6459 3406 1072 8495 9725 3937 8050 6229 7242 5776 4324 6365
24 5858 6239 9487 782 2731 3493 6618 4089 4714 2043 1166 6775 3077 7259 9113 8264 5274 8473 2615 631 9257 2421 749 6191
32 5491 7319 6003 9804 7253 5409 4872 8984 7805 3843 1643 7221 4784 6800 6140 953 3963 8650 4212 1882 1486 9125 8927 9895 9279 6022 8333 480 3002 9960 8612 8178
30 3990 3849 5636 6473 2442 6638 4639 2355 843 6757 7564 5074 4561 2909 5556 1988 1516 806 5577 9683 3353 1373 4051 5618 8389 7214 9552 9811 2441 4124
12 2538 7677 4794 9869 1508 8110 9546 9394 7915 76 9436 6544
21 4260 4537 9556 6255 3614 1416 8669 3660 7786 4674 8474 6347 4166 8900 5788 7338 3872 7039 2843 9461 4319
9 1651 1421 8088 8235 5972 955 4242 7968 6721
14 902 7546 1994 6567 9751 1346 8300 7604 1220 4302 8857 7296 2348 4646
20 9137 5698 3821 718 640 9712 4990 64 9195 4356 9963 9264 8051 9474 2504 5180 7506 845 5508 3346
23 2788 874 1276 6430 2207 1263 6744 9798 534 3628 5271 5175 2405 2331 7029 4534 4108 9005 2094 9467 6981 4790 2586
27 8586 8274 7574 3375 2577 5135 8882 1311 7150 6904 2034 3550 1499 5292 4620 7646 1463 7107 9448 8875 5412 8663 1507 307 3971 8838 1701
26 8848 200 5535 1200 4404 2041 5656 8367 4713 2075 8500 6915 1264 5519 3556 7842 8749 6226 9616 8347 2733 4201 1400 229 9909 5376
12 3951 5510 206 4717 6064 1029 6262 5597 8920 3736 6646 8047
11 4511 4255 4016 3936 2454 8206 4504 4261 9024 3218 6260
21 2006 9813 8309 6922 2916 1106 6809 8094 1062 9346 2088 5677 7780 1793 5264 5399 3274 2683 8008 8163 8535
30 6747 1674 9627 4980 6550 8795 1079 8030 4400 9101 2395 6579 9566 121 7474 9882 6114 2863 6810 5364 7790 3359 985 4026 3519 1333 3280 8251 9614 1038
31 2026 1524 3605 9524 4481 6380 6716 396 4776 4584 1787 2938 5768 5026 1921 9163 9739 450 3481 888 6878 8577 1279 2638 3240 5207 2886 1095 7001 1261 7795
11 8021 7347 7149 754 7220 1130 4368 4359 6215 4039 5975
26 2436 2957 3603 7690 378 2919 4034 8970 6476 2054 7370 1104 9724 9157 736 2850 467 940 2646 2553 7667 6867 6598 1808 7784 5230
36 2899 892 5369 1267 3191 2077 4652 7912 3290 6946 1297 716 8691 8446 7305 4343 83 6730 9490 357 8725 3212 77 6714 3982 500 1025 3081 3109 3456 8066 7481 2878 5749 831 1300
17 864 6208 4029 2105 3970 9234 7066 7197 5451 1692 8928 275 9908 6231 4312 3824 1087
18 5359 5996 5748 9349 3999 5259 7538 3300 8281 6314 5165 5110 4192 1442 8572 6148 7311 5063
12 6877 1588 3462 3108 3966 6076 2288 5325 4563 4886 8622 8874
27 6735 5377 3842 6438 1557 6705 9710 2304 7633 7971 1539 3846 4473 4044 9083 171 9862 2003 6691 3744 8084 3998 573 4726 6032 5896 3480
17 8699 608 3381 9231 589 9423 5590 6787 721 3995 3192 140 2564 6693 1195 3500 465
26 5034 2681 9385 1430 2984 9272 2680 9584 6389 8741 9029 103 5482 6006 973 7121 8754 988 7981 5204 9580 1645 3172 7537 2090 1082
25 2791 6786 9845 2856 2570 6119 6133 3904 6333 4074 4899 1073 8817 2398 6790 4122 2038 3806 1829 1526 1445 5836 4977 3665 6603
9 7575 1670 5186 9883 312 2870 6631 7166 3620
4 8104 209 1399 8000
31 9685 6455 5205 6711 7085 9620 3879 3477 3117 353 3155 137 1907 5133 8291 4979 1953 5552 6776 6590 3387 7590 5276 829 3301 4095 9294 3349 1191 2138 1055
28 7082 4833 1995 3544 6340 8191 2673 5951 9132 9812 6297 1431 8688 7672 5072 1857 7832 7371 2708 3662 673 4956 6448 3898 9168 8311 8001 7223
20 5654 8328 2649 6703 6023 7535 6491 1302 3691 52 7749 5670 3894 8974 1307 6655 4478 7072 72 5969
26 3170 6053 7876 6856 3036 2059 8176 4503 6832 5070 2693 2621 3501 9879 6542 7016 2197 803 6225 6841 9174 8834 5775 51 4510 6665
28 328 2626 5771 2056 611 7209 7276 9604 1081 8827 9089 6134 9221 2154 5651 7024 9630 3391 5349 5007 7201 9509 9486 9854 390 1809 2610 5547
26 1689 3947 1260 9042 7785 6247 3685 8820 8830 2923 2947 7798 4902 213 5921 3916 2728 3144 4719 9932 8497 4367 4530 4778 3069 1006
22 1852 1142 615 3022 1693 6643 3482 2790 9077 2206 5188 2125 9843 3873 2308 2499 548 4766 6368 3224 5294 939
20 9191 6307 3991 3602 2992 1797 908 4939 8598 3277 8986 3237 7753 6276 3683 2575 4402 9338 4735 2773
22 8792 2881 9511 9116 2781 4593 4744 5021 272 2479 3547 4688 7599 1933 2269 54 9169 1044 4484 1636 6322 8594
12 5500 4836 9897 388 4301 3084 9446 1552 1903 7395 4157 805
19 8979 3910 1640 290 6739 2409 6580 7746 930 8245 6548 5004 6862 6325 8886 7279 6501 7839 9914
14 4200 9255 3066 9512 2551 6132 1110 7613 446 7803 5439 2961 392 9796
18 7428 4196 565 5240 5917 8112 1902 4366 1246 9699 9802 6017 2101 6766 6099 3644 662 5232
20 7585 3426 5888 6293 39 8413 7488 9001 4608 2109 8415 693 3960 331 8805 7892 1877 7833 2046 1118
20 5710 2118 7102 4658 6024 9466 4327 9133 9222 8610 7075 5190 5030 644 7083 6585 7136 3863 8980 263
7 8967 6936 2349 6153 6112 7943 2117
21 8447 8254 3840 4065 3469 7654 5163 582 7090 7944 5320 1618 3337 8570 5531 8100 4315 6959 8519 3110 1948
25 1530 6200 9735 4403 2076 6279 9228 5941 3173 6059 9783 6116 8153 3401 9218 8812 3198 1811 7084 6723 5354 8501 756 8078 3458
16 1778 9754 3689 1572 9422 9961 287 603 860 4199 9014 5435 3035 2113 1115 3313
13 7117 5983 3516 5784 68 9808 3950 7938 667 8091 1972 1677 3825
18 3176 5025 9382 8653 9527 7245 1631 5238 2969 3230 3809 8625 9875 7676 2326 1230 1510 7441
18 9495 6245 3453 1215 4966 1862 6737 7316 6566 4821 4096 6488 1702 4746 6996 771 9704 6686
26 6004 7446 4115 3370 102 5724 2377 9284 6907 3372 2037 3661 4093 6774 3913 7272 9877 7800 9865 8592 6553 6084 3835 2114 1350 2300
22 9401 2401 839 4020 330 531 5660 7729 4105 6582 8109 6443 7341 936 8177 278 4237 9269 1806 3552 9340 641
24 6168 7648 4048 2769 3121 4562 4440 4906 7100 5396 556 6510 4341 3884 9149 4680 4422 1549 6390 8352 5735 1290 5253 1633
17 5517 212 4520 9337 8532 1538 6055 3348 7961 7378 6233 1360 7878 7611 5368 4286 3043
21 6159 9602 720 7867 6392 6538 8504 7239 5619 2846 7392 1840 5154 6184 7718 851 186 7099 1654 9245 9530
26 2230 41 3632 4396 5495 6313 4331 4274 5564 8864 7267 7630 6167 1525 8569 3382 2294 6027 1696 3684 6564 4142 9008 7836 7057 3975
24 9503 9926 7554 665 1460 6825 7933 6081 3909 5099 463 857 8326 1814 6486 4730 6431 7844 4640 8276 7813 7568 6492 2203
3 4467 6684 2758
17 8892 5699 6749 1491 5678 5228 595 2797 8617 883 8026 4456 2804 8007 9774 7147 3028
5 873 4365 1199 6447 4941
18 8548 6765 1628 5107 3993 7856 629 1101 8631 7516 3765 816 8268 2501 4512 1310 8881 7362
32 8978 5757 8521 6634 9065 4123 9070 7143 8160 612 5582 1624 6187 3299 8250 1291 8381 5506 7238 7925 5119 3834 5946 9197 7955 9013 2594 56 5874 4185 9635 2897
7 6875 3017 7444 7153 6071 5197 5478
17 4112 4502 935 9180 5866 9177 691 9388 4113 987 7712 8450 3967 8591 2431 3428 4471
17 8203 8440 4202 1684 6357 5344 2343 387 1924 8027 9085 6415 9955 6891 6608 4386 7025
23 3773 4863 1102 1886 7282 1160 1716 8952 350 6312 8074 4660 3856 7738 8729 6282 2257 38 1397 2795 4181 8726 2273
17 4575 8198 6718 2167 2464 6270 3345 9975 377 6386 1203 4499 9292 6855 4932 7868 492
18 3291 4472 6824 5694 7046 2563 3413 9293 2030 2091 784 4864 7469 1594 9637 3335 1137 9536
20 7314 1503 5351 8034 992 9276 6484 9054 6838 1368 8627 8307 8748 5097 7497 6175 3001 7623 9999 8070
23 4624 1233 9951 1685 9127 2187 105 7498 2910 6680 4235 4881 5052 9506 7124 7591 6256 2475 1798 1517 73 8948 1304
27 245 7248 4705 1222 3732 3169 1942 4397 833 8662 576 2400 2837 997 9384 1690 1719 6801 1007 8455 7431 2853 6005 6955 3860 391 3812
23 3779 7870 3972 3433 5437 230 819 8960 4073 279 5986 4454 2719 6117 3336 1298 7247 5275 3427 4288 1128 6019 7899
19 3362 6306 7009 5032 8127 8068 7419 5416 5595 4860 207 1483 9443 8467 4458 1367 5616 6853 5415
27 8786 8536 7668 7438 9858 4130 9408 6094 6999 1934 7502 399 3907 434 3078 7978 363 5448 2655 7030 9066 7518 5121 4077 3687 1718 6494
28 1869 1830 9654 5783 5799 5124 2314 5550 2898 3862 1292 7987 1255 9330 4323 6353 613 5000 9982 9762 2616 1712 1153 7300 3275 4041 6323 3611
16 5295 4291 4544 3190 2745 7309 147 7078 9644 6085 1767 4682 4804 905 6083 2939
14 3317 1518 9657 1667 9832 7162 7344 1459 3496 1980 5373 2341 4569 6517
27 6192 7465 6413 9450 7034 4854 9846 7216 886 6882 9701 9823 4111 5040 9574 4523 9489 9404 4670 9145 4702 5057 2521 901 4841 9850 4490
27 9806 9105 3026 7246 9068 3122 2115 2568 1392 65 2636 9378 8470 8855 8933 6679 8336 6077 8972 2860 5643 2120 3464 8275 4305 2185 8374
28 3068 3411 3445 8035 3205 9440 8407 5998 2359 7904 521 7177 9363 9235 5645 2980 6400 8392 5078 8634 5588 8269 8036 1848 9703 4918 1052 2408
24 8224 4050 2967 8575 7663 380 8990 934 8266 3505 8148 8134 8807 6678 9880 8115 2582 9398 4408 6890 5683 5753 1602 6063
13 2074 2212 8048 5355 6632 6623 8230 7079 131 2227 1425 6676 3286
18 5540 5602 2352 9118 8037 8652 8981 23 7295 925 8781 6592 1881 6074 3533 4049 5029 1929
16 1208 5379 6970 1818 3242 7917 3582 8002 5736 8777 9953 9759 5812 8226 9776 5841
5 3129 4686 5234 5091 6441
15 1177 6425 1863 233 7368 1918 6947 850 2149 3956 2342 8124 5750 3298 4987
16 2495 511 2997 141 3770 5861 3974 2541 1083 6624 5834 7953 4308 6073 5046 224
24 1970 1175 241 1349 1169 7761 715 2174 3085 1188 698 3292 8958 6530 9664 6351 3019 8658 3040 2490 4968 3724 7649 8453
10 7975 5090 7323 9871 7883 1529 174 108 5446 6350
10 730 95 4410 9190 100 8403 91 3669 9377 6644
26 1955 7243 6352 3537 2852 4798 8220 2809 2048 9810 7620 8692 928 5561 7969 8697 5203 8443 8322 9525 4416 2145 3931 3238 5790 5225
28 2782 8856 4587 5267 7665 1443 4398 5160 2842 1197 938 1656 4330 4033 9136 7588 8689 1606 4579 4596 6303 3889 479 7539 899 8216 7834 8137
25 150 5686 8682 922 4643 3958 2126 5193 7037 7334 1715 4718 9247 8649 3447 4032 8565 3296 4952 3302 4545 2689 4823 2449 1247
9 9543 5777 7683 3420 3701 9952 8075 7609 7110
23 9636 9314 8854 1676 4247 4638 5608 4426 3328 6728 614 356 3756 470 2555 63 4254 2727 4972 6285 1408 3838 4592
14 9078 4807 7884 6009 5382 5064 9298 6982 7755 7566 3182 3595 242 5071
25 3541 4153 4629 7387 5310 5915 6746 3851 1875 7231 1317 2561 7788 1786 815 954 429 1089 8985 4751 3727 8910 4723 7123 6113
9 2718 9501 642 7826 221 6770 1837 1377 4013
18 409 210 1913 5241 993 6082 4227 711 5221 8111 6687 1080 2372 6401 488 9650 5476 3279
12 364 7635 2389 2012 2371 570 4671 9599 5048 5395 1966 6405
24 332 2000 8273 5082 6062 2095 7271 6596 4470 9593 5249 1034 1136 4165 8436 6432 4240 4444 4229 1849 7951 5855 2130 1150
17 5887 5756 8609 5952 254 9639 4832 1695 3955 3059 6759 3303 3020 2133 7702 3284 2169
12 6879 3635 2183 3142 7720 9258 416 8619 3627 2914 9711 590
23 2780 5957 8093 2754 494 7466 5356 1752 8494 4453 4625 2024 8961 9480 9193 676 3076 9119 3771 7688 3388 4160 4865
7 4507 9954 1744 4161 4005 2298 1758
28 4665 9628 1843 2639 2952 2900 708 9836 8945 9859 5630 2021 8976 453 361 9674 7095 2974 5109 9399 4797 7776 6796 7597 4054 1454 8123 9326
22 9805 655 6000 9477 8529 7171 3785 8018 8510 1198 6157 2051 3416 6171 1296 1125 9348 7549 2489 2092 3700 6960
22 8346 1655 3885 4656 9209 2385 2320 379 9624 880 5340 2861 8299 5019 4933 8362 1769 9211 8356 8139 5159 910
30 5282 2261 4806 8530 4007 8951 2802 4477 6460 6930 7573 3874 9328 8511 8918 4651 7288 3011 7353 914 7385 2911 1890 3100 3132 2258 879 1064 1892 3514
15 8382 7557 381 8194 3940 1859 2515 4907 6238 7264 6092 664 3488 3612 2411
26 7249 8554 506 2178 6719 8909 8687 4594 6751 6223 2370 8025 991 6397 2785 6561 9323 2029 7 5989 2968 1086 296 8232 4531 1939
25 4761 4613 7494 4986 772 9357 1779 9911 8099 5247 4851 2437 958 9697 8076 3013 9966 4023 3023 764 8451 913 8279 321 181
6 1804 1550 476 6349 6158 8210
26 9874 2497 8085 2937 9842 1968 6172 9248 5824 1330 5569 5725 5909 8576 9092 7897 2097 9204 2872 7639 9271 2629 3787 6461 4057 5571
26 8351 3816 5668 9182 3721 1745 7555 4433 4802 9230 8431 4407 3399 6763 2560 1853 3091 625 6732 3350 7348 1495 2321 9215 8327 2691
18 8157 4107 8831 7759 767 872 628 3814 4755 5126 9343 7485 7959 2671 4729 2623 4909 4156
28 8835 6012 5662 1331 8695 1768 9478 7894 3854 6203 9983 6146 3256 1566 4745 7910 8201 8461 7851 4519 4271 6781 593 4509 7983 8879 8106 2848
17 6536 9557 1465 9538 5690 2652 2260 1943 4498 2246 7806 5411 6779 7990 6993 2221 4158
28 3866 1986 8989 832 4862 8101 867 7361 1791 484 5692 2535 5872 2994 5168 1666 6315 7336 1103 466 6731 8684 9432 9690 1731 9507 840 2755
23 9744 6523 4485 7278 2406 4989 4236 30 538 2933 6692 9162 6697 3917 8905 6935 2707 2223 1801 6311 8332 325 3032
23 7373 4940 1355 3124 5170 4415 516 281 7659 2438 683 9919 809 149 6142 139 983 4252 8457 3324 2491 6569 4311
22 5017 6503 8236 671 2217 9742 7445 5009 1016 4087 3593 3139 257 5763 6847 1925 9893 4427 4401 5895 3126 1204
17 9631 6645 1294 3513 5400 7715 2164 7145 6345 4856 8624 3404 3893 1649 2085 9578 2430
22 7430 8348 7534 3657 9896 7822 7680 4840 4489 2854 7735 5705 7003 205 8744 9126 3189 6701 7606 7035 8613 6087
30 5285 2036 4704 6280 9570 3746 3930 6156 1045 3799 3231 1861 5140 3150 7352 5326 7447 654 4425 7514 5144 2775 8942 1366 6136 8384 7281 8308 1293 2818
29 3830 9353 3542 7232 9138 461 4491 6179 1532 6103 2086 4550 2089 1756 90 5384 6948 4754 6667 160 2022 9551 3944 3932 2604 8174 3014 1887 1134
27 1527 9640 596 8995 127 9458 5809 4924 8502 2417 9333 2580 2144 6556 4870 1727 5681 972 7408 9099 1091 6028 4908 2628 371 7069 5538
15 4349 7277 6652 2473 9044 8623 5938 5918 2013 5974 9058 5130 2786 3107 231
18 6265 7312 8940 9134 7043 4006 8753 7855 5013 5333 3517 3769 4488 3033 2251 5889 6364 2845
28 3263 5711 1474 3418 4497 8560 8062 979 1979 6699 8212 3115 5470 1065 260 9212 7354 1836 9786 868 2493 5826 7038 9905 4983 5883 2289 3589
26 428 6842 7190 4645 8595 2543 847 8237 6253 1688 8383 2153 1075 7106 9828 9389 2752 8172 7185 3954 9417 7739 792 3113 7289 2724
28 1313 6316 8772 146 1239 4888 8542 6161 1393 7222 2383 3672 7462 2205 1870 3235 9748 5128 3598 7128 7304 3357 6899 9814 7509 2905 5977 638
7 5562 3750 9368 122 8599 558 3341
30 4673 3938 4938 3232 5994 9822 2025 3075 2228 7865 3574 2039 5880 9816 8833 8524 8325 2433 6628 4514 6720 4737 7241 8423 9568 9296 7831 790 9545 3402
22 1223 9947 9634 3414 8188 5576 5603 1299 3211 3592 1842 5908 1770 6289 309 6588 2858 3716 3600 5644 5003 1642
25 8410 7934 572 7477 5426 5514 2612 9324 8721 5999 3449 6281 5166 4025 8478 9034 3642 3460 5940 5609 5791 7251 7008 1570 9834
26 3512 7174 6222 5452 9238 2248 7967 2309 6290 5042 2765 2756 7656 3568 7292 2936 6637 1329 858 5414 3941 9942 869 5362 2457 4338
15 8448 266 7922 8259 4664 244 8851 4167 4559 8705 6043 6137 1382 9295 5059
26 3490 7567 3565 9492 4318 5287 5045 7697 138 7931 3597 5658 4547 8304 9435 2757 9591 8305 9791 7426 9203 746 5269 8925 5652 8054
4 5516 7662 1817 4476
26 7666 6818 4953 5853 159 2753 3609 2407 897 15 8481 6234 8917 4265 1567 3331 1535 735 4222 1730 393 747 5657 8666 535 7375
24 7255 656 6601 7548 8806 3099 8956 1896 509 2191 6581 7552 414 3446 9181 7302 2381 8983 7670 6524 7157 4580 5661 7011
19 8338 802 267 9037 1441 6597 454 285 8911 7091 8516 2443 27 4567 7137 6249 8354 3563 9693
26 2973 9254 846 753 5375 4256 8263 7532 3694 8883 4204 2506 2978 7782 2524 162 3355 5392 3558 5423 2879 6045 9277 8674 5939 8543
25 6420 5158 2653 4119 7503 2885 929 2534 5092 6495 4430 5943 7875 4102 5288 2226 750 8716 4180 783 7131 8089 2224 9940 6288
24 9045 4733 982 422 2930 6956 4636 4532 9319 3845 3436 3948 1383 5981 9978 1622 4831 1375 1131 9885 299 2764 6057 948
9 168 9289 3760 3911 469 971 6817 3762 828
27 5829 3783 3789 7901 7730 5116 3624 3905 3308 7384 4055 1822 304 9460 6176 2789 9957 7175 478 1950 1648 1462 7593 7821 7427 7722 2376
9 533 2635 4101 6647 8667 9226 8638 2710 1159
23 4720 5719 9738 9375 2160 709 189 2374 1981 3269 6953 740 5191 8621 6778 6604 2700 7887 7797 3244 8651 5930 7482
28 9633 4657 4024 7256 9159 7169 4879 2121 2958 1960 3079 4378 7021 4388 8841 8197 154 2365 5607 124 4500 4757 927 2830 6250 234 906 4750
22 9815 6498 8955 6244 81 1947 9208 4628 2713 3137 6339 3979 3630 3376 2027 1957 1927 8114 1129 1288 9198 8490
20 6360 3594 6101 6989 3532 6587 2477 1433 6378 4272 4845 1964 7871 8676 3004 2868 2202 389 3012 8375
24 6547 7994 1553 876 5770 4293 9074 1679 4685 4711 2218 2139 243 5157 5747 2162 605 6876 1390 5688 3871 5055 5854 8337
12 2399 1777 4914 4555 7263 674 8809 9687 4135 3774 8126 1626
10 6942 3666 8368 3818 952 7576 1872 3986 1844 7641
25 284 2181 660 4709 3901 7234 3157 4406 9056 7587 6712 6366 2175 9867 6945 528 752 1615 6760 7390 6933 1938 7350 5474 2544
27 199 1873 9130 4017 9731 3981 4884 3997 9881 1389 1448 7440 37 6609 6617 8107 4571 7721 2763 9415 6992 7756 8046 6621 8282 2794 737
20 9586 3270 2323 1762 7642 8694 7048 3394 1638 9299 8460 9225 1753 1116 2093 5152 3567 6754 8427 9515
20 498 5593 967 2760 8661 2116 4710 8432 1068 7500 7893 3383 4961 7845 5493 6616 6715 1865 2862 1378
24 419 6710 5650 2771 2817 8378 444 2270 1429 1531 7407 8550 4701 3154 7605 2532 4626 3389 5022 1764 7989 1726 7183 6994
31 6338 5621 1647 3366 8151 9833 8780 5907 9694 2104 9361 4060 5139 4912 5956 6204 6469 4461 703 6091 2158 681 7596 5242 2083 6335 6573 9781 635 818 3097
22 1240 4028 5428 5766 7777 2240 8505 3425 8760 3285 3992 3213 8549 8061 8221 5488 8045 5893 8561 8441 6717 5931
25 3083 6742 7442 7211 1733 7342 8996 6808 2272 6036 2375 2137 924 8475 2142 3352 195 471 3801 264 1280 4769 383 8363 7783
13 318 5352 942 5366 2556 8798 8562 8788 1379 1398 7869 8717 1579
20 1206 1008 130 6848 7006 3356 7626 4217 4878 9470 4963 185 7299 3485 8358 5846 4151 2070 251 5273
25 135 9625 354 2044 7315 8506 2467 5462 2241 5041 4012 1905 7018 9080 6264 7725 2674 2222 5947 8365 5752 2136 4697 1576 998
18 9297 9795 9064 751 4541 8804 5713 5962 2292 3499 5700 9167 4317 3837 8943 3652 4220 8350
22 7000 4409 5628 1494 115 3648 9553 6681 1464 639 9498 7326 7192 6539 7330 5164 7158 4991 289 7374 2880 9860
20 4920 6021 6173 46 7068 7176 1748 8150 6833 5801 4075 4251 9661 42 8845 8417 2195 324 3702 3134
16 69 1792 2799 2927 4595 3729 2354 4505 2127 781 7412 7980 5432 8923 6595 4268
25 3875 6984 5069 9737 5260 6178 2766 3509 8366 2722 8775 8067 3808 2358 5722 7723 2215 745 226 418 7487 5544 1060 82 9970
28 3050 4602 607 3215 3062 2388 7873 2192 4892 7949 5527 4768 5958 1435 8863 2876 3018 9756 7992 522 3698 9956 5065 8648 3378 8897 6258 9172
6 4830 6971 6188 4068 2741 5982
9 4011 727 5518 3131 3273 7416 5551 2814 5370
17 4482 6927 6639 177 9900 4838 6860 9201 5010 9088 7170 5960 7950 1301 8087 2540 3880
13 4285 5892 6966 9972 1182 7456 4969 8968 9750 1952 2196 7496 8582
22 6029 856 633 8737 3434 8028 9160 2694 5929 9643 9185 3613 5217 7995 3523 6227 1895 5673 5787 7577 5973 795
31 9485 1272 5601 9678 8523 3952 6121 1248 8620 9006 6375 5389 366 7298 8997 7939 9244 7820 4974 2334 5111 6918 5418 1244 6209 6194 2725 5459 421 6093 5390
11 1326 4585 1319 9732 4650 2496 75 9280 995 2836 2337
10 2518 6454 6402 7191 3227 2648 4209 9658 7098 9287
29 8816 6141 6078 7595 5803 7274 1193 808 4734 5559 6820 8169 9183 9967 8738 3195 5568 94 7449 8709 3706 6500 9468 5726 2902 4691 9120 9317 7058
11 7196 7113 4853 7366 6138 1603 7809 6520 9196 7985 8898
11 4228 6729 7135 2128 7453 1706 2987 7705 5011 3042 2410
25 1997 5012 3057 4749 5837 1098 1480 7817 8416 21 1819 3 1275 2364 2567 1187 1632 9122 132 3125 4193 6725 9775 9259 4145
20 2440 1755 7479 7558 5526 1391 1930 3752 1911 2063 5734 4614 8829 1780 6388 2427 3658 460 5613 8994
22 3475 3047 8546 7501 1012 618 1396 112 2478 3841 125 8252 4438 9455 2647 1278 8765 8515 1336 7052 5760 2609
25 9109 6969 646 9165 5374 5298 3507 5864 4590 7543 4190 859 7331 5419 5796 1124 3223 2650 3243 9590 9931 8295 3797 8156 2055
16 8285 5620 7464 4915 7327 6528 6827 1673 7056 5745 6088 8267 6606 5311 6212 616
7 448 3116 6251 7457 523 1820 6190
23 6128 4035 9262 1256 9151 4834 7830 5134 1328 6047 1471 1235 9239 974 6990 1621 4015 4931 3914 9290 5798 4446 2271
12 780 5291 8665 1985 74 4857 2346 3715 3518 7219 587 406
26 2425 497 1496 6274 6657 7770 6106 4667 3216 5083 238 1982 6854 7405 1351 9730 5741 7396 4448 6095 5842 7268 1043 2253 4883 9176
21 854 6512 1436 969 5033 7592 7045 5386 10 4777 3902 1469 9428 3161 1107 504 3899 7437 1641 7215 5714
26 9705 3616 2180 2831 6422 2362 1412 3133 485 4800 9837 8603 3782 395 5308 1681 543 5715 5785 7521 1782 6224 1623 6050 5266 3367
22 8823 3680 3778 2360 4278 9632 6925 536 8988 670 7547 5911 5313 4000 9372 4492 1380 60 3140 8552 2287 4332
24 1186 8937 3775 990 9641 5684 5394 527 6235 2596 9571 7402 3832 8387 5950 2255 1156 8499 1127 7696 1658 8152 6978 4725
25 6069 7710 7203 8228 4384 8782 9817 2796 2042 7651 9917 4903 731 3010 6928 2687 6532 2267 5118 5671 1575 5095 3637 3965 8147
12 7874 8192 6086 6666 8846 7607 4577 182 410 2697 5361 8217
11 2896 5422 1232 3530 5782 4722 4329 4700 1479 3656 343
23 5182 9464 1281 5695 5457 458 1282 9420 2607 3295 9155 2959 3494 1682 262 6651 9173 6964 5927 8132 2310 598 6465
24 2132 3054 7636 5701 2667 9027 7014 4314 2670 2715 9403 6543 577 7517 1971 1440 8751 7054 9309 8222 2211 4554 9918 9329
22 4003 475 5050 5169 1458 2875 1069 3210 4539 9351 2595 1761 6773 1094 7345 347 2666 3504 4303 7476 5865 3380
9 9483 7930 6440 6611 9178 2822 702 4568 9766
22 8419 376 7411 643 7301 8214 865 9229 6462 2955 9533 9431 5035 1894 1703 1234 1185 6702 4399 4189 7906 9354
11 9702 5642 7684 3178 5463 1732 532 2005 2096 5596 9004
15 4405 1146 2186 8003 7486 335 8757 9032 9365 2779 4287 4556 8861 7565 6613
22 3566 4764 7811 397 5123 1568 1428 774 517 7189 1989 4262 6180 4945 4923 6010 5634 6872 1141 5926 2821 4140
25 3740 6399 5100 3896 4249 6864 8963 8540 126 6505 8242 5220 855 5524 2282 3897 9437 4581 5871 8409 7257 7290 6317 8877 3791
27 6771 6261 4930 9948 7693 542 9438 3278 7164 9941 732 2189 7708 449 4521 9416 7388 4960 9959 4612 1577 5797 3322 3792 1898 7335 3588
28 1386 8187 2033 1613 9075 1644 2415 6041 7920 2835 6708 3977 8935 4459 1450 7583 5589 7258 6577 3728 2704 2976 4795 7163 12 6533 9938 9673
14 1963 92 1487 3393 949 2156 7167 8871 5380 3186 4276 4518 9709 2887
23 8747 7386 6570 1846 3203 8257 8296 2065 4496 6696 4043 1042 1743 9835 748 3823 3419 336 7126 6761 3492 2152 6241
17 7380 9273 8719 3214 1265 2047 4118 7023 7144 4298 5814 9241 1467 5942 2210 5545 5988
22 9743 3082 2480 2867 8033 1709 2345 7560 9780 2721 9275 968 9009 9807 5546 8005 9692 2855 5127 1202 5599 7017
21 507 4913 8998 2547 1466 7898 4038 4964 3392 2956 9969 6130 634 798 165 3175 1788 5499 5047 9577 4955
20 9579 4944 1179 5323 6909 7793 2373 6292 894 5625 6370 3511 8971 6869 1249 2750 5676 6302 2730 4040
21 6764 4450 7778 5101 4921 5464 4690 255 153 1850 5002 2903 3577 3452 7997 6487 6046 8893 8607 2073 1306
20 2245 6048 8742 2404 826 3165 7907 5632 3044 2645 7262 3470 4809 386 1253 1262 8248 6468 8966 2620
16 1 2751 4351 801 116 9312 340 3087 8859 4721 2529 7888 5460 797 70 4133
25 9002 645 4099 2505 7513 9741 2557 1946 4106 5992 433 6733 2396 2148 2685 4817 6555 5873 1157 8837 3922 5051 8371 5312 3631
18 9345 1587 1453 5914 9826 946 9943 7328 4936 8839 5454 4922 5773 3184 7303 9311 7766 3617
10 7434 4372 4021 4063 9962 2966 2548 4086 7909 7093
14 984 9033 3102 9539 3465 9844 5610 7866 561 134 4259 2099 9764 2770
23 7686 5036 1181 4355 2906 2921 4114 9322 4486 678 8361 6038 3796 8165 2739 2672 3497 6214 1285 5044 8541 2322 9916
8 1977 6196 4724 550 4654 688 6272 1880
20 8059 7847 1537 4617 649 4871 7080 6120 8793 4898 7313 5805 1388 4175 706 1161 9369 2746 1158 7600
7 4245 775 5465 6641 9462 1686 2591
18 7152 9158 6359 4828 6218 9192 3135 9767 4805 8049 261 7076 2943 9665 1851 5585 9342 4949
12 3119 9981 1746 6283 3247 584 7940 695 7807 537 9148 7581
9 313 8190 578 4206 6562 3534 6298 2632 1855
18 9100 6893 3315 286 9370 9441 8125 1061 7828 5209 1437 4129 7681 648 4445 8211 8770 2208
12 1845 9475 9035 7010 2866 4573 8769 8723 2823 58 6348 4243
25 1245 2613 5579 4328 3621 544 7614 8293 2945 5023 8544 836 2749 7063 3545 5456 7199 5863 5468 5327 3226 4599 8195 926 9915
17 5674 2661 7118 1211 9288 3754 7726 9141 8218 8108 2213 4360 1610 3668 6396 1926 7773
22 415 9232 5835 4866 6885 4019 1810 3474 8334 6682 5904 5421 9870 4234 8286 8944 4548 2131 7744 5817 7042 8957
